{
    "----------Stösselpositionen-------------":"",
    "A-ERWAERM1-PRESSE/BG:MM:LENGTH:Positionmittel:Stoesselposition gemittelt mm_Float": "St\u00f6sselposition gemittelt_[mm]",
    "A-ERWAERM1-PRESSE/BG:MM:LENGTH:Positionhintenlinks:Stoesselposition hinten links mm_Float": "St\u00f6sselposition hinten links_[mm]",
    "A-ERWAERM1-PRESSE/BG:MM:LENGTH:Positionvornelinks:Stoesselposition vorne links mm_Float": "St\u00f6sselposition vorne links_[mm]",
    "A-ERWAERM1-PRESSE/BG:MM:LENGTH:Positionvornerechts:Stoesselposition hinten rechts mm_Float": "St\u00f6sselposition hinten rechts_[mm]",
    "----------Other-------------":"",
    "A-ERWAERM1-PRESSE/CF:XXXX:OTHER:PRODNR:Produktnummer_Int32": "Produktnummer(1=Fu\u00dfraum WZ1, 7=Fu\u00dfraum WZ2)",
    "A-ERWAERM1-PRESSE/CF:XXXX:OTHER:Status:Status_Int32": "Status(0=Aus, 1=Ein, 2=Dauer-Aus)",
    "A-ERWAERM1-BAHNHOF/CF:XXXX:XXXX:RisspruefungNIO:Auswertung Risspruefung N_I_O__Int16":"Risspr\u00fcfung niO",
    "----------Pressenkraft-------------":"",
    "A-ERWAERM1-PRESSE/CF:XXXX:XXXX:IF_CtrlToPlc_TCPIP_Slide_ActVal_TotalForce_F:Stoeselkraft ges amt  total slide force kN_Float": "St\u00f6sselkraft gesamt_[kN]",
	"A-ERWAERM1-PRESSE/BP:BAR:XXXX:IF_CtrlToPlc_TCPIP_Slide_ActVal_OuterCyl13_B01_1_F:Aussenzylinder 1_ 3 Kraft _ outer cylinder 1_3 for ce kN_Float" : "St\u00f6sselkraft Aussenzylinder_[kN]",
    "A-ERWAERM1-PRESSE/BW:KN:XXXX:IF_CtrlToPlc_TCPIP_Slide_ActVal_CenterCyl2_B01_2_F:Mittelzylinder K raft _ center cy linder force kN_Float": "St\u00f6sselkraft Mittelzylinder_[kN]",
    "A-ERWAERM1-PRESSE/CF:XXXX:XXXX:IF_CtrlToPlc_PN_Slide_ActCtrl_Ack_PRESSURE_TIME_FIN_BDC:pressure time bd c finished _ Dru ckzeit in UT fer tig_Int16":"Pressvorgang Ende_[bool]",
    "A-ERWAERM1-PRESSE/CF:XXXX:XXXX:IF_CtrlToPlc_PN_Slide_ActCtrl_Ack_DECOMPRESNITRODYNE_FIN:decompression ni trodyne finishrd _ Entlasten Fed erwerkzeug ferti g_Int16":"Freigabe Entlasten Federwerkzeug_[bool]",
    "A-ERWAERM1-PRESSE/BK:S:OTHER:IstZuhaltezeit:Ist Zuhaltezeit Stoessel_Float":"Presse Ist-Zuhaltezeit_[s]",
    "----------Stückzähler-------------":"",
    "A-ERWAERM1-PROPLC/BZ:ST:OTHER:STK_FurnaceInput:StkZahl Teile am Ofen Eingang_Float": "Paketz\u00e4hler Ofen Eingang_[Stk]",
    "A-ERWAERM1-PROPLC/BZ:ST:OTHER:STK_FurnaceOutput:StkZahl Teile i_o am Ofen Ausgang_Float": "Paketz\u00e4hler iO Ofen Ausgang_[Stk]",
    "A-ERWAERM1-PROPLC/BZ:ST:OTHER:STK_IFDInput:StkZahl Teile am IFD Eingang_Float": "Paketz\u00e4hler Eintragefeeder Eingang_[Stk]",
    "A-ERWAERM1-PROPLC/BZ:ST:OTHER:STK_IFDOutput:StkZahl Teile i_o am IFD Ausgang_Float": "Paketz\u00e4hler iO Eintragefeeder Ausgang_[Stk]",
    "A-ERWAERM1-PROPLC/BZ:ST:OTHER:STK_PressInput:StkZahl Teile am Pressen Eingang_Float": "Paketz\u00e4hler Presse Eingang_[Stk]",
    "A-ERWAERM1-PROPLC/BZ:ST:OTHER:STK_PressOutput:StkZahl Teile i_o am Pressen Ausgang_Float": "Paketz\u00e4hler iO Presse Ausgang_[Stk]",
    "A-ERWAERM1-PROPLC/BZ:ST:OTHER:STK_OFDInput:StkZahl Teile am OFD Eingang_Float": "Paketz\u00e4hler Austragefeeder Eingang_[Stk]",
    "A-ERWAERM1-PROPLC/BZ:ST:OTHER:STK_OFDOutput:StkZahl Teile i_o am OFD Ausgang_Float": "Paketz\u00e4hler iO Austragefeeder Ausgang_[Stk]",    
    "----------Pyrometer-------------":"",
    "A-ERWAERM1-PRESSE/BT:CEL:OTHER:G09O61M0_B197_1:Pyrometer 1 _ pyrometer 1_Float": "Pyrometer 1_[\u00b0C]",
    "A-ERWAERM1-PRESSE/BT:CEL:OTHER:G09O61M0_B197_2:Pyrometer 2 _ pyrometer 2_Float": "Pyrometer 2_[\u00b0C]",
    "A-ERWAERM1-PRESSE/BT:CEL:OTHER:G09O61M0_B197_3:Pyrometer 3 _ pyrometer 3_Float": "Pyrometer 3_[\u00b0C]",
    "A-ERWAERM1-PRESSE/BT:CEL:OTHER:G09O61M0_B197_4:Pyrometer 4 _ pyrometer 4_Float": "Pyrometer 4_[\u00b0C]",
    "----------Ofen-------------":"",
    "A-ERWAERM1-OFEN/BX:XXXX:XXXX:M_Automatic:M_Automatischer Betriebsmodus_Int16": "Ofen Automatikmodus (1=an,0=aus)",
    "A-ERWAERM1-OFEN/BT:CEL:OTHER:Temperaturen_Zone1_Istwert:_Float": "Ofen Temperatur Zone 1_[\u00b0C]",
    "A-ERWAERM1-OFEN/BX:XXXX:OTHER:Temperaturen_Zone2_Istwert:_Float": "Ofen Temperatur Zone 2_[\u00b0C]",
    "A-ERWAERM1-OFEN/BX:XXXX:OTHER:Temperaturen_Zone3_Istwert:_Float": "Ofen Temperatur Zone 3_[\u00b0C]",
    "A-ERWAERM1-OFEN/BT:CEL:OTHER:Temperaturen_Zone4_Istwert:_Float": "Ofen Temperatur Zone 4_[\u00b0C]",
    "A-ERWAERM1-OFEN/BT:CEL:OTHER:Temperaturen_Zone5_Istwert:_Float": "Ofen Temperatur Zone 5_[\u00b0C]",
    "A-ERWAERM1-OFEN/BT:CEL:OTHER:Temperaturen_Zone6_Istwert:_Float": "Ofen Temperatur Zone 6_[\u00b0C]",
    "A-ERWAERM1-OFEN/BX:XXXX:OTHER:Temperaturen_Zone7_Istwert:_Float": "Ofen Temperatur Zone 7_[\u00b0C]",
    "A-ERWAERM1-OFEN/BX:XXXX:OTHER:Temperaturen_Zone8_Istwert:_Float": "Ofen Temperatur Zone 8_[\u00b0C]",
    "A-ERWAERM1-OFEN/BX:XXXX:OTHER:Temperaturen_Zone9_W_Istwert:_Float": "Ofen Temperatur Zone 9W_[\u00b0C]",
    "A-ERWAERM1-OFEN/BT:CEL:OTHER:Temperaturen_Zone10_W_Istwert:_Float": "Ofen Temperatur Zone 10W_[\u00b0C]",
    "A-ERWAERM1-OFEN/BT:CEL:OTHER:Temperaturen_Zone11_W_Istwert:_Float": "Ofen Temperatur Zone 11W_[\u00b0C]",
    "A-ERWAERM1-PROPLC/CF:XXXX:XXXX:BTA1_LS_Ofenrollgang_4:Bauteil hat Ofen verlassen_Int16": "Paketflanke Ofen Ausgang",
    "----------Eintragefeeder-------------":"",
    "A-ERWAERM1-PROPLC/BG:MMT:LENGTH:IFD_LeftXPosition:IFD_Linke Seite X_Achse Position_Float": "IFD Linke Seite X-Achse Position_[mm]",
    "A-ERWAERM1-PROPLC/BG:MMT:LENGTH:IFD_LeftYPosition:IFD_Linke Seite Y_Achse Position_Float": "IFD Linke Seite Y-Achse Position_[mm]",
    "A-ERWAERM1-PROPLC/BG:MMT:LENGTH:IFD_LeftZPosition:IFD_Linke Seite Z_Achse Position_Float": "IFD Linke Seite Z-Achse Position_[mm]",
    "A-ERWAERM1-PROPLC/BG:MMT:LENGTH:IFD_RightXPosition:IFD_Rechte Seite X_Achse Position_Float": "IFD Rechte Seite X-Achse Position_[mm]",
    "A-ERWAERM1-PROPLC/BG:MMT:LENGTH:IFD_RightYPosition:IFD_Rechte Seite Y_Achse Position_Float": "IFD Rechte Seite Y-Achse Position_[mm]",
    "A-ERWAERM1-PROPLC/BG:MMT:LENGTH:IFD_RightZPosition:IFD_Rechte Seite Z_Achse Position_Float": "IFD Rechte Seite Z-Achse Position_[mm]",
    "----------Werkzeugkühlung-------------":"",
    "A-ERWAERM1-PRESSE/BF:Lm:OTHER:G09O90M0B951:Werkzeugkuehlung Oberwerkz Durchfl Rueck_Float": "Werkzeugkuehlung Fu\u00dfraum_oben Oberwerkz Durchfl_[L/min]",
    "A-ERWAERM1-PRESSE/BT:CELSIUS:H2O:G09O90M0B961:Werkzeugkuehlung Oberwerkz Temp Rueckl 1_Float": "Werkzeugkuehlung Fu\u00dfraum_oben Oberwerkz Temp_[\u00b0C]",

    "A-ERWAERM1-PRESSE/BF:Lm:OTHER:G09O90M0B971:Werkzeugkuehlung Unterwerkz Durchfl Ruec_Float": "Werkzeugkuehlung Fu\u00dfraum_oben Unterwerkz Durchfl_[L/min]",
    "A-ERWAERM1-PRESSE/BT:CELSIUS:H2O:G09O90M0B981:Werkzeugkuehlung Unterwerkz Temp Rueckl_Float": "Werkzeugkuehlung Fu\u00dfraum_oben Unterwerkz Temp_[\u00b0C]",

    "A-ERWAERM1-PRESSE/BF:Lm:OTHER:G09O90M0B953:Werkzeugkuehlung Oberwerkz Durchfl Rueck_Float": "Werkzeugkuehlung Fu\u00dfraum_unten Oberwerkz Durchfl_[L/min]",
    "A-ERWAERM1-PRESSE/BT:CELSIUS:H2O:G09O90M0B963:Werkzeugkuehlung Oberwerkz Temp Rueckl 3_Float": "Werkzeugkuehlung Fu\u00dfraum_unten Oberwerkz Temp_[\u00b0C]",

    "A-ERWAERM1-PRESSE/BF:Lm:OTHER:G09O90M0B973:Werkzeugkuehlung Unterwerkz Durchfl Ruec_Float": "Werkzeugkuehlung Fu\u00dfraum_unten Unterwerkz Durchfl_[L/min]",
    "A-ERWAERM1-PRESSE/BT:CELSIUS:H2O:G09O90M0B983:Werkzeugkuehlung Unterwerkz Temp Rueckl_Float": "Werkzeugkuehlung Fu\u00dfraum_unten Unterwerkz Temp_[\u00b0C]",

    
    "A-ERWAERM1-PRESSE/BT:CELSIUS:H2O:PT100_1:Vorlauftemperatur Kuehlwasser_Float":"Werkzeugkuehlung Vorlauf Temp_[\u00b0C]",
    "A-ERWAERM1-PRESSE/BT:CELSIUS:H2O:PT100_2:Rücklauftemperatur Kühlwasser_Int32":"Werkzeugkuehlung Ruecklauf Temp_[\u00b0C]"        
}